elf_arch=arm
elf_build_id=WhatAnAmazingBuildId
elf_file_name=elf
elf_mtime={redacted}
git_revision=abc123
gn_args=var1=true var2="foo"
linker_name=gold
map_file_name=../../../test.map
tool_prefix=tools/binary_size/libsupersize/testdata/mock_toolchain/
Section .text: has 0.2% of 83792 bytes accounted for from 21 symbols. 35816920 bytes are unaccounted for.
* Padding accounts for 13808 bytes (16.5%)
* 16 have source paths. Accounts for 73986 bytes (88.3%).
* 4 placeholders exist (symbols that start with **). Accounts for 13840 bytes (16.5%).
* 8 aliases exist, mapped to 3 unique addresses (100 bytes saved)
* 0 symbols have shared ownership.
* 1 symbols are marked as "unlikely". Accounts for 69124 bytes (82.5%).
* 4 symbols are marked as "startup". Accounts for 128 bytes (0.2%).
* 3 symbols are clones. Accounts for 106 bytes (0.1%).
* 5 symbols are from generated sources. Accounts for 69660 bytes (83.1%).
Section .rodata: has 44.6% of 2641540 bytes accounted for from 11 symbols. 3286112 bytes are unaccounted for.
* Padding accounts for 2637946 bytes (99.9%)
* 8 have source paths. Accounts for 676149 bytes (25.6%).
* 3 placeholders exist (symbols that start with **). Accounts for 1965391 bytes (74.4%).
* 3 string literals exist. Accounts for 21 bytes (0.0%) padding is 0 bytes.
* 2 aliases exist, mapped to 1 unique addresses (5 bytes saved)
* 0 symbols have shared ownership.
* 2 symbols are from generated sources. Accounts for 21 bytes (0.0%).
Section .data.rel.ro: has 0.0% of 92 bytes accounted for from 3 symbols. 1065132 bytes are unaccounted for.
* Padding accounts for 0 bytes (0.0%)
* 3 have source paths. Accounts for 92 bytes (100.0%).
* 0 symbols have shared ownership.
Section .data: has 0.2% of 168 bytes accounted for from 5 symbols. 101600 bytes are unaccounted for.
* Padding accounts for 0 bytes (0.0%)
* 5 have source paths. Accounts for 168 bytes (100.0%).
* 0 symbols have shared ownership.
Section .bss: has 40.3% of 524520 bytes accounted for from 6 symbols. 775936 bytes are unaccounted for.
* Padding accounts for 196 bytes (0.0%)
* 6 have source paths. Accounts for 524520 bytes (100.0%).
* 0 symbols have shared ownership.
* 3 symbols are from generated sources. Accounts for 232 bytes (0.0%).
Section .dex: 0 bytes from 0 symbols.
* Padding accounts for 0 bytes (0.0%)
* 0 have source paths. Accounts for 0 bytes (0.0%).
* 0 symbols have shared ownership.
Section .dex.method: 0 bytes from 0 symbols.
* Padding accounts for 0 bytes (0.0%)
* 0 have source paths. Accounts for 0 bytes (0.0%).
* 0 symbols have shared ownership.
Section .pak.translations: has 100.0% of 6821 bytes accounted for from 208 symbols. 0 bytes are unaccounted for.
* Padding accounts for 18 bytes (0.3%)
* 3 have source paths. Accounts for 23 bytes (0.3%).
* 2 aliases exist, mapped to 1 unique addresses (9 bytes saved)
* 0 symbols have shared ownership.
* 2 symbols are from generated sources. Accounts for 23 bytes (0.3%).
Section .pak.nontranslated: has 100.0% of 737 bytes accounted for from 3 symbols. 0 bytes are unaccounted for.
* Padding accounts for 18 bytes (2.4%)
* 0 have source paths. Accounts for 0 bytes (0.0%).
* 0 symbols have shared ownership.
Section .other: has 100.0% of 33984171 bytes accounted for from 1 symbols. 0 bytes are unaccounted for.
* Padding accounts for 33984171 bytes (100.0%)
* 0 have source paths. Accounts for 0 bytes (0.0%).
* 0 symbols have shared ownership.
.data@2de7000(size_without_padding=4,padding=0,full_name=google::protobuf::internal::pLinuxKernelCmpxchg,object_path=base/base/page_allocator.o,source_path=base/page_allocator.cc,flags={},num_aliases=1,component=Blink>Internal)
.data@2de7004(size_without_padding=4,padding=0,full_name=google::protobuf::internal::pLinuxKernelMemoryBarrier,object_path=third_party/sub/ContiguousContainer.o,source_path=third_party/container/container.c,flags={},num_aliases=1,component=UI>Browser)
.data@2de7008(size_without_padding=152,padding=0,full_name=base::android::kBaseRegisteredMethods,object_path=third_party/sub/ContiguousContainer.o,source_path=third_party/container/container.c,flags={rel},num_aliases=1,component=UI>Browser)
.data@2de70a0(size_without_padding=4,padding=0,full_name=base::android::g_renderer_histogram_code,object_path=third_party/sub/ContiguousContainer.o,source_path=third_party/container/container.c,flags={anon},num_aliases=1,component=UI>Browser)
.data@2de70a4(size_without_padding=4,padding=0,full_name=base::android::g_library_version_number,object_path=third_party/sub/ContiguousContainer.o,source_path=third_party/container/container.c,flags={anon,rel.loc},num_aliases=1,component=UI>Browser)
.data.rel.ro@2cd8500(size_without_padding=56,padding=0,full_name=ChromeMainDelegateAndroid [vtable],object_path=third_party/sub/PaintChunker.o,source_path=third_party/paint.cc,flags={},num_aliases=1,component=Internal>Android)
.data.rel.ro@2cd8538(size_without_padding=24,padding=0,full_name=mojo::MessageReceiver [vtable],object_path=base/base/page_allocator.o,source_path=base/page_allocator.cc,flags={},num_aliases=1,component=Blink>Internal)
.data.rel.ro@2cd8550(size_without_padding=12,padding=0,full_name=kMethodsAnimationFrameTimeHistogram,object_path=base/base/page_allocator.o,source_path=base/page_allocator.cc,flags={},num_aliases=1,component=Blink>Internal)
.data.rel.ro.local@2c176f0(size_without_padding=56,padding=0,full_name=ChromeMainDelegate [vtable],object_path=third_party/icu/icuuc/ucnv_ext.o,source_path=third_party/icu/ucnv_ext.c,flags={gen},num_aliases=1,component=Internal>Android)
.data.rel.ro.local@2c17728(size_without_padding=24,padding=0,full_name=chrome::mojom::FieldTrialRecorder [vtable],object_path=third_party/icu/icuuc/ucnv_ext.o,source_path=third_party/icu/ucnv_ext.c,flags={gen},num_aliases=1,component=Internal>Android)
.data.rel.ro.local@2c17740(size_without_padding=789904,padding=0,full_name=chrome::mojom::FieldTrialRecorderProxy [vtable],object_path=third_party/sub/ContiguousContainer.o,source_path=third_party/container/container.c,flags={},num_aliases=1,component=UI>Browser)
.data.rel.ro.local@2cd84e0(size_without_padding=16,padding=16,full_name=.Lswitch.table.45,object_path=third_party/gvr-android-sdk/libgvr_shim_static_arm.a/libcontroller_api_impl.a_controller_api_impl.o,source_path=,flags={},num_aliases=1,component=)
.data.rel.ro.local@2cd84f0(size_without_padding=8,padding=0,full_name=kSystemClassPrefixes,object_path=third_party/gvr-android-sdk/libgvr_shim_static_arm.a/libport_android_jni.a_jni_utils.o,source_path=,flags={anon},num_aliases=1,component=)
.other@0(size_without_padding=0,padding=33984171,full_name=Overhead: ELF file,object_path=,source_path=,flags={},num_aliases=1,component=)
.rodata@266e600(size_without_padding=5,padding=0,full_name=string literal,object_path=base/base/page_allocator.o,source_path=base/page_allocator.cc,flags={},num_aliases=2,component=Blink>Internal)
.rodata@266e600(size_without_padding=5,padding=0,full_name=string literal,object_path=third_party/icu/icuuc/ucnv_ext.o,source_path=third_party/icu/ucnv_ext.c,flags={gen},num_aliases=2,component=Internal>Android)
.rodata@266e605(size_without_padding=16,padding=0,full_name=string literal,object_path=third_party/icu/icuuc/ucnv_ext.o,source_path=third_party/icu/ucnv_ext.c,flags={gen},num_aliases=1,component=Internal>Android)
.rodata@266e630(size_without_padding=16,padding=27,full_name=** merge strings,object_path=,source_path=,flags={},num_aliases=1,component=)
.rodata@284d600(size_without_padding=3425,padding=1961920,full_name=** merge constants,object_path=,source_path=,flags={},num_aliases=1,component=)
.rodata@284e364(size_without_padding=0,padding=3,full_name=** symbol gap 0,object_path=,source_path=,flags={},num_aliases=1,component=)
.rodata@284e364(size_without_padding=8,padding=0,full_name=,object_path=base/base/page_allocator.o,source_path=base/page_allocator.cc,flags={},num_aliases=1,component=Blink>Internal)
.rodata@284e370(size_without_padding=40,padding=4,full_name=Name,object_path=base/base/page_allocator.o,source_path=base/page_allocator.cc,flags={},num_aliases=1,component=Blink>Internal)
.rodata@284e398(size_without_padding=32,padding=0,full_name=chrome::mojom::FilePatcher::Name_,object_path=third_party/sub/ContiguousContainer.o,source_path=third_party/container/container.c,flags={},num_aliases=1,component=UI>Browser)
.rodata@28f3450(size_without_padding=48,padding=675992,full_name=kAnimationFrameTimeHistogramClassPath,object_path=third_party/sub/PaintChunker.o,source_path=third_party/paint.cc,flags={anon},num_aliases=1,component=Internal>Android)
.rodata@28f3480(size_without_padding=4,padding=0,full_name=blink::CSSValueKeywordsHash::findValueImpl(char const*, unsigned int)::value_word_list,object_path=third_party/sub/PaintChunker.o,source_path=third_party/paint.cc,flags={anon},num_aliases=1,component=Internal>Android)
.text@28d900(size_without_padding=16,padding=0,full_name=_GLOBAL__sub_I_page_allocator.cc,object_path=base/base/page_allocator.o,source_path=base/page_allocator.cc,flags={startup},num_aliases=1,component=Blink>Internal)
.text@28d910(size_without_padding=56,padding=0,full_name=_GLOBAL__sub_I_bbr_sender.cc,object_path=base/base/page_allocator.o,source_path=base/page_allocator.cc,flags={startup},num_aliases=1,component=Blink>Internal)
.text@28d948(size_without_padding=28,padding=0,full_name=_GLOBAL__sub_I_pacing_sender.cc,object_path=base/base/page_allocator.o,source_path=base/page_allocator.cc,flags={startup},num_aliases=1,component=Blink>Internal)
.text@28d964(size_without_padding=38,padding=0,full_name=extFromUUseMapping(signed char, unsigned int, int),object_path=base/base/page_allocator.o,source_path=base/page_allocator.cc,flags={},num_aliases=1,component=Blink>Internal)
.text@28d98a(size_without_padding=32,padding=0,full_name=extFromUUseMapping(aj, int),object_path=base/base/page_allocator.o,source_path=base/page_allocator.cc,flags={},num_aliases=1,component=Blink>Internal)
.text@28f000(size_without_padding=0,padding=5718,full_name=** symbol gap 0,object_path=,source_path=,flags={},num_aliases=1,component=)
.text@28f000(size_without_padding=448,padding=0,full_name=ucnv_extMatchFromU(int const*, int, unsigned short const*, int, unsigned short const*, int, unsigned int*, signed char, signed char),object_path=third_party/icu/icuuc/ucnv_ext.o,source_path=third_party/icu/ucnv_ext.c,flags={gen},num_aliases=1,component=Internal>Android)
.text@28f1c8(size_without_padding=20,padding=8,full_name=_GLOBAL__sub_I_SkDeviceProfile.cpp,object_path=third_party/icu/icuuc/ucnv_ext.o,source_path=third_party/icu/ucnv_ext.c,flags={startup,gen},num_aliases=1,component=Internal>Android)
.text@28f1e0(size_without_padding=69120,padding=4,full_name=foo_bar,object_path=third_party/icu/icuuc/ucnv_ext.o,source_path=third_party/icu/ucnv_ext.c,flags={unlikely,gen},num_aliases=1,component=Internal>Android)
.text@2a0000(size_without_padding=16,padding=32,full_name=BazAlias(bool),object_path=third_party/icu/icuuc/ucnv_ext.o,source_path=third_party/icu/ucnv_ext.c,flags={gen},num_aliases=2,component=Internal>Android)
.text@2a0000(size_without_padding=16,padding=32,full_name=blink::ContiguousContainerBase::shrinkToFit(),object_path=,source_path=,flags={},num_aliases=2,component=)
.text@2a0010(size_without_padding=12,padding=0,full_name=BarAlias(),object_path=third_party/ffmpeg/libffmpeg_internal.a/fft_float.o,source_path=third_party/fft_float.cc,flags={},num_aliases=4,component=Internal>Android)
.text@2a0010(size_without_padding=12,padding=0,full_name=FooAlias(),object_path=third_party/ffmpeg/libffmpeg_internal.a/fft_float.o,source_path=third_party/fft_float.cc,flags={},num_aliases=4,component=Internal>Android)
.text@2a0010(size_without_padding=12,padding=0,full_name=blink::ContiguousContainerBase::shrinkToFit(),object_path=third_party/icu/icuuc/ucnv_ext.o,source_path=third_party/icu/ucnv_ext.c,flags={gen,clone},num_aliases=4,component=Internal>Android)
.text@2a0010(size_without_padding=12,padding=0,full_name=blink::ContiguousContainerBase::shrinkToFit(),object_path=third_party/sub/PaintChunker.o,source_path=third_party/paint.cc,flags={clone},num_aliases=4,component=Internal>Android)
.text@2a0020(size_without_padding=24,padding=4,full_name=blink::ContiguousContainerBase::ContiguousContainerBase(blink::ContiguousContainerBase&&),object_path=third_party/sub/ContiguousContainer.o,source_path=third_party/container/container.c,flags={},num_aliases=1,component=UI>Browser)
.text@2a1000(size_without_padding=0,padding=4040,full_name=** symbol gap 1,object_path=,source_path=,flags={},num_aliases=1,component=)
.text@2a1000(size_without_padding=94,padding=0,full_name=blink::PaintChunker::releasePaintChunks(),object_path=third_party/sub/ContiguousContainer.o,source_path=third_party/container/container.c,flags={anon,clone},num_aliases=1,component=UI>Browser)
.text@2a2000(size_without_padding=32,padding=4002,full_name=** outlined function,object_path=third_party/sub/ContiguousContainer.o,source_path=third_party/container/container.c,flags={},num_aliases=1,component=UI>Browser)
.text@2a2020(size_without_padding=48,padding=0,full_name=** outlined function * 2,object_path=,source_path=,flags={},num_aliases=2,component=)
.text@2a2020(size_without_padding=48,padding=0,full_name=aliasedWithOutlinedFunction(),object_path=,source_path=,flags={},num_aliases=2,component=)
.bss@0(size_without_padding=262144,padding=0,full_name=ff_cos_131072,object_path=third_party/ffmpeg/libffmpeg_internal.a/fft_float.o,source_path=third_party/fft_float.cc,flags={},num_aliases=1,component=Internal>Android)
.bss@0(size_without_padding=131072,padding=0,full_name=ff_cos_131072_fixed,object_path=third_party/ffmpeg/libffmpeg_internal.a/fft_fixed.o,source_path=third_party/fft_fixed.cc,flags={},num_aliases=1,component=Internal>Android)
.bss@0(size_without_padding=131072,padding=0,full_name=ff_cos_65536,object_path=third_party/ffmpeg/libffmpeg_internal.a/fft_float.o,source_path=third_party/fft_float.cc,flags={},num_aliases=1,component=Internal>Android)
.bss@2dffda0(size_without_padding=28,padding=0,full_name=g_chrome_content_browser_client,object_path=third_party/icu/icuuc/ucnv_ext.o,source_path=third_party/icu/ucnv_ext.c,flags={gen},num_aliases=1,component=Internal>Android)
.bss@2dffe80(size_without_padding=4,padding=196,full_name=SaveHistogram(_JNIEnv*, base::android::JavaParamRef<_jobject*> const&, base::android::JavaParamRef<_jstring*> const&, base::android::JavaParamRef<_jlongArray*> const&, int)::atomic_histogram_pointer,object_path=third_party/icu/icuuc/ucnv_ext.o,source_path=third_party/icu/ucnv_ext.c,flags={gen},num_aliases=1,component=Internal>Android)
.bss@2dffe84(size_without_padding=4,padding=0,full_name=g_AnimationFrameTimeHistogram_clazz,object_path=third_party/icu/icuuc/ucnv_ext.o,source_path=third_party/icu/ucnv_ext.c,flags={anon,gen},num_aliases=1,component=Internal>Android)
.pak.nontranslated@0(size_without_padding=0,padding=18,full_name=Overhead: ../../../mock_apk/assets/resources.pak,object_path=,source_path=,flags={},num_aliases=1,component=)
.pak.nontranslated@2f03(size_without_padding=502,padding=0,full_name=../../chrome/browser/browser_resources.grd: IDR_PDF_COMPOSITOR_MANIFEST,object_path=,source_path=,flags={uncompressed},num_aliases=1,component=)
.pak.nontranslated@2f04(size_without_padding=217,padding=0,full_name=../../chrome/browser/browser_resources.grd: IDR_CHROME_RENDERER_SERVICE_MANIFEST,object_path=,source_path=,flags={},num_aliases=1,component=)
.pak.translations@0(size_without_padding=0,padding=18,full_name=Overhead: ../../../mock_apk/assets/en-US.pak,object_path=,source_path=,flags={},num_aliases=1,component=)
.pak.translations@0(size_without_padding=0,padding=0,full_name=Overhead: Pak compression artifacts,object_path=,source_path=,flags={},num_aliases=1,component=)
.pak.translations@3ac6(size_without_padding=40,padding=0,full_name=../../components/app_modal_strings.grdp: IDS_BEFOREUNLOAD_MESSAGEBOX_MESSAGE,object_path=,source_path=,flags={},num_aliases=1,component=)
.pak.translations@3d7c(size_without_padding=24,padding=0,full_name=../../components/policy_strings.grdp: IDS_POLICY_TYPE_ERROR,object_path=,source_path=,flags={},num_aliases=1,component=)
.pak.translations@3d82(size_without_padding=25,padding=0,full_name=../../components/policy_strings.grdp: IDS_POLICY_LIST_ENTRY_ERROR,object_path=,source_path=,flags={},num_aliases=1,component=)
.pak.translations@3d83(size_without_padding=41,padding=0,full_name=../../components/policy_strings.grdp: IDS_POLICY_SCHEMA_VALIDATION_ERROR,object_path=,source_path=,flags={},num_aliases=1,component=)
.pak.translations@3dd2(size_without_padding=51,padding=0,full_name=../../components/safe_browsing_strings.grdp: IDS_SB_UNDER_CONSTRUCTION,object_path=,source_path=,flags={},num_aliases=1,component=)
.pak.translations@3df8(size_without_padding=20,padding=0,full_name=../../components/security_interstitials_strings.grdp: IDS_SAFEBROWSING_V3_TITLE,object_path=,source_path=,flags={},num_aliases=1,component=)
.pak.translations@3df9(size_without_padding=17,padding=0,full_name=../../components/security_interstitials_strings.grdp: IDS_SAFEBROWSING_V3_OPEN_DETAILS_BUTTON,object_path=,source_path=,flags={},num_aliases=1,component=)
.pak.translations@3dfa(size_without_padding=18,padding=0,full_name=../../components/security_interstitials_strings.grdp: IDS_SAFEBROWSING_V3_CLOSE_DETAILS_BUTTON,object_path=,source_path=,flags={},num_aliases=1,component=)
.pak.translations@3dfb(size_without_padding=20,padding=0,full_name=../../components/security_interstitials_strings.grdp: IDS_SAFEBROWSING_OVERRIDABLE_SAFETY_BUTTON,object_path=,source_path=,flags={},num_aliases=1,component=)
.pak.translations@3dfc(size_without_padding=44,padding=0,full_name=../../components/security_interstitials_strings.grdp: IDS_MALWARE_V3_HEADING,object_path=,source_path=,flags={},num_aliases=1,component=)
.pak.translations@3dfd(size_without_padding=226,padding=0,full_name=../../components/security_interstitials_strings.grdp: IDS_MALWARE_V3_PRIMARY_PARAGRAPH,object_path=,source_path=,flags={},num_aliases=1,component=)
.pak.translations@3dfe(size_without_padding=165,padding=0,full_name=../../components/security_interstitials_strings.grdp: IDS_MALWARE_V3_EXPLANATION_PARAGRAPH,object_path=,source_path=,flags={},num_aliases=1,component=)
.pak.translations@3dff(size_without_padding=231,padding=0,full_name=../../components/security_interstitials_strings.grdp: IDS_MALWARE_V3_EXPLANATION_PARAGRAPH_SUBRESOURCE,object_path=,source_path=,flags={},num_aliases=1,component=)
.pak.translations@3e00(size_without_padding=165,padding=0,full_name=../../components/security_interstitials_strings.grdp: IDS_MALWARE_V3_PROCEED_PARAGRAPH,object_path=,source_path=,flags={},num_aliases=1,component=)
.pak.translations@3e01(size_without_padding=20,padding=0,full_name=../../components/security_interstitials_strings.grdp: IDS_SAFE_BROWSING_PRIVACY_POLICY_PAGE,object_path=,source_path=,flags={},num_aliases=1,component=)
.pak.translations@3e02(size_without_padding=116,padding=0,full_name=../../components/security_interstitials_strings.grdp: IDS_SAFE_BROWSING_MALWARE_REPORTING_AGREE,object_path=,source_path=,flags={},num_aliases=1,component=)
.pak.translations@3e03(size_without_padding=156,padding=0,full_name=../../components/security_interstitials_strings.grdp: IDS_SAFE_BROWSING_SCOUT_REPORTING_AGREE,object_path=,source_path=,flags={},num_aliases=1,component=)
.pak.translations@3e08(size_without_padding=26,padding=0,full_name=../../components/security_interstitials_strings.grdp: IDS_PHISHING_V4_HEADING,object_path=,source_path=,flags={},num_aliases=1,component=)
.pak.translations@3e09(size_without_padding=253,padding=0,full_name=../../components/security_interstitials_strings.grdp: IDS_PHISHING_V4_PRIMARY_PARAGRAPH,object_path=,source_path=,flags={},num_aliases=1,component=)
.pak.translations@3e0a(size_without_padding=155,padding=0,full_name=../../components/security_interstitials_strings.grdp: IDS_PHISHING_V4_EXPLANATION_PARAGRAPH,object_path=,source_path=,flags={},num_aliases=1,component=)
.pak.translations@3e0b(size_without_padding=187,padding=0,full_name=../../components/security_interstitials_strings.grdp: IDS_PHISHING_V4_PROCEED_AND_REPORT_PARAGRAPH,object_path=,source_path=,flags={},num_aliases=1,component=)
.pak.translations@3e0c(size_without_padding=32,padding=0,full_name=../../components/security_interstitials_strings.grdp: IDS_MALWARE_WEBVIEW_HEADING,object_path=,source_path=,flags={},num_aliases=1,component=)
.pak.translations@3e0d(size_without_padding=160,padding=0,full_name=../../components/security_interstitials_strings.grdp: IDS_MALWARE_WEBVIEW_EXPLANATION_PARAGRAPH,object_path=,source_path=,flags={},num_aliases=1,component=)
.pak.translations@3e0e(size_without_padding=32,padding=0,full_name=../../components/security_interstitials_strings.grdp: IDS_PHISHING_WEBVIEW_HEADING,object_path=,source_path=,flags={},num_aliases=1,component=)
.pak.translations@3e0f(size_without_padding=147,padding=0,full_name=../../components/security_interstitials_strings.grdp: IDS_PHISHING_WEBVIEW_EXPLANATION_PARAGRAPH,object_path=,source_path=,flags={},num_aliases=1,component=)
.pak.translations@4e85(size_without_padding=11,padding=0,full_name=../../content/app/strings/content_strings.grd: IDS_FORM_CALENDAR_CLEAR,object_path=,source_path=,flags={},num_aliases=1,component=)
.pak.translations@4e86(size_without_padding=11,padding=0,full_name=../../content/app/strings/content_strings.grd: IDS_FORM_CALENDAR_TODAY,object_path=,source_path=,flags={},num_aliases=1,component=)
.pak.translations@4e87(size_without_padding=16,padding=0,full_name=../../content/app/strings/content_strings.grd: IDS_FORM_SUBMIT_LABEL,object_path=,source_path=,flags={},num_aliases=1,component=)
.pak.translations@4e89(size_without_padding=11,padding=0,full_name=../../content/app/strings/content_strings.grd: IDS_FORM_RESET_LABEL,object_path=,source_path=,flags={},num_aliases=1,component=)
.pak.translations@4e8a(size_without_padding=17,padding=0,full_name=../../content/app/strings/content_strings.grd: IDS_FORM_FILE_BUTTON_LABEL,object_path=,source_path=,flags={},num_aliases=1,component=)
.pak.translations@4e8b(size_without_padding=18,padding=0,full_name=../../content/app/strings/content_strings.grd: IDS_FORM_MULTIPLE_FILES_BUTTON_LABEL,object_path=,source_path=,flags={},num_aliases=1,component=)
.pak.translations@4e8c(size_without_padding=20,padding=0,full_name=../../content/app/strings/content_strings.grd: IDS_FORM_FILE_NO_FILE_LABEL,object_path=,source_path=,flags={},num_aliases=1,component=)
.pak.translations@4e8d(size_without_padding=14,padding=0,full_name=../../content/app/strings/content_strings.grd: IDS_FORM_FILE_MULTIPLE_UPLOAD,object_path=,source_path=,flags={},num_aliases=1,component=)
.pak.translations@4e8e(size_without_padding=26,padding=0,full_name=../../content/app/strings/content_strings.grd: IDS_FORM_OTHER_COLOR_LABEL,object_path=,source_path=,flags={},num_aliases=1,component=)
.pak.translations@4e92(size_without_padding=8,padding=0,full_name=../../content/app/strings/content_strings.grd: IDS_FORM_PLACEHOLDER_FOR_DAY_OF_MONTH_FIELD,object_path=,source_path=,flags={},num_aliases=1,component=)
.pak.translations@4e93(size_without_padding=8,padding=0,full_name=../../content/app/strings/content_strings.grd: IDS_FORM_PLACEHOLDER_FOR_MONTH_FIELD,object_path=,source_path=,flags={},num_aliases=1,component=)
.pak.translations@4e94(size_without_padding=10,padding=0,full_name=../../content/app/strings/content_strings.grd: IDS_FORM_PLACEHOLDER_FOR_YEAR_FIELD,object_path=,source_path=,flags={},num_aliases=1,component=)
.pak.translations@4e95(size_without_padding=17,padding=0,full_name=../../content/app/strings/content_strings.grd: IDS_FORM_SELECT_MENU_LIST_TEXT,object_path=,source_path=,flags={},num_aliases=1,component=)
.pak.translations@4e96(size_without_padding=16,padding=0,full_name=../../content/app/strings/content_strings.grd: IDS_FORM_THIS_MONTH_LABEL,object_path=,source_path=,flags={},num_aliases=1,component=)
.pak.translations@4e97(size_without_padding=15,padding=0,full_name=../../content/app/strings/content_strings.grd: IDS_FORM_THIS_WEEK_LABEL,object_path=,source_path=,flags={},num_aliases=1,component=)
.pak.translations@4e98(size_without_padding=14,padding=0,full_name=../../content/app/strings/content_strings.grd: IDS_FORM_WEEK_NUMBER_LABEL,object_path=,source_path=,flags={},num_aliases=1,component=)
.pak.translations@4e99(size_without_padding=32,padding=0,full_name=../../content/app/strings/content_strings.grd: IDS_AX_CALENDAR_SHOW_MONTH_SELECTOR,object_path=,source_path=,flags={},num_aliases=1,component=)
.pak.translations@4e9a(size_without_padding=21,padding=0,full_name=../../content/app/strings/content_strings.grd: IDS_AX_CALENDAR_SHOW_NEXT_MONTH,object_path=,source_path=,flags={},num_aliases=1,component=)
.pak.translations@4e9b(size_without_padding=25,padding=0,full_name=../../content/app/strings/content_strings.grd: IDS_AX_CALENDAR_SHOW_PREVIOUS_MONTH,object_path=,source_path=,flags={},num_aliases=1,component=)
.pak.translations@4e9c(size_without_padding=24,padding=0,full_name=../../content/app/strings/content_strings.grd: IDS_AX_CALENDAR_WEEK_DESCRIPTION,object_path=,source_path=,flags={},num_aliases=1,component=)
.pak.translations@4e9d(size_without_padding=13,padding=0,full_name=../../content/app/strings/content_strings.grd: IDS_AX_ROLE_ARTICLE,object_path=,source_path=,flags={},num_aliases=1,component=)
.pak.translations@4e9e(size_without_padding=12,padding=0,full_name=../../content/app/strings/content_strings.grd: IDS_AX_ROLE_BANNER,object_path=,source_path=,flags={},num_aliases=1,component=)
.pak.translations@4e9f(size_without_padding=19,padding=0,full_name=../../content/app/strings/content_strings.grd: IDS_AX_ROLE_COMPLEMENTARY,object_path=,source_path=,flags={},num_aliases=1,component=)
.pak.translations@4ea0(size_without_padding=14,padding=0,full_name=../../content/app/strings/content_strings.grd: IDS_AX_ROLE_CHECK_BOX,object_path=,source_path=,flags={},num_aliases=1,component=)
.pak.translations@4ea1(size_without_padding=18,padding=0,full_name=../../content/app/strings/content_strings.grd: IDS_AX_ROLE_CONTENT_INFO,object_path=,source_path=,flags={},num_aliases=1,component=)
.pak.translations@4ea2(size_without_padding=16,padding=0,full_name=../../content/app/strings/content_strings.grd: IDS_AX_ROLE_DEFINITION,object_path=,source_path=,flags={},num_aliases=1,component=)
.pak.translations@4ea4(size_without_padding=10,padding=0,full_name=../../content/app/strings/content_strings.grd: IDS_AX_ROLE_DESCRIPTION_TERM,object_path=,source_path=,flags={},num_aliases=1,component=)
.pak.translations@4ea5(size_without_padding=25,padding=0,full_name=../../content/app/strings/content_strings.grd: IDS_AX_ROLE_DISCLOSURE_TRIANGLE,object_path=,source_path=,flags={},num_aliases=1,component=)
.pak.translations@4ea6(size_without_padding=10,padding=0,full_name=../../content/app/strings/content_strings.grd: IDS_AX_ROLE_FEED,object_path=,source_path=,flags={},num_aliases=1,component=)
.pak.translations@4ea9(size_without_padding=12,padding=0,full_name=../../content/app/strings/content_strings.grd: IDS_AX_ROLE_FOOTER,object_path=,source_path=,flags={},num_aliases=1,component=)
.pak.translations@4eac(size_without_padding=19,padding=0,full_name=../../content/app/strings/content_strings.grd: IDS_AX_ROLE_TOGGLE_BUTTON,object_path=,source_path=,flags={},num_aliases=1,component=)
.pak.translations@4ead(size_without_padding=13,padding=0,full_name=../../content/app/strings/content_strings.grd: IDS_AX_ROLE_HEADING,object_path=,source_path=,flags={},num_aliases=1,component=)
.pak.translations@4eae(size_without_padding=10,padding=0,full_name=../../content/app/strings/content_strings.grd: IDS_AX_ROLE_LINK,object_path=,source_path=,flags={},num_aliases=1,component=)
.pak.translations@4eaf(size_without_padding=10,padding=0,full_name=../../content/app/strings/content_strings.grd: IDS_AX_ROLE_MAIN_CONTENT,object_path=,source_path=,flags={},num_aliases=1,component=)
.pak.translations@4eb0(size_without_padding=25,padding=0,full_name=../../content/app/strings/content_strings.grd: IDS_AX_ROLE_MARK,object_path=,source_path=,flags={},num_aliases=1,component=)
.pak.translations@4eb1(size_without_padding=10,padding=0,full_name=../../content/app/strings/content_strings.grd: IDS_AX_ROLE_MATH,object_path=,source_path=,flags={},num_aliases=1,component=)
.pak.translations@4eb2(size_without_padding=16,padding=0,full_name=../../content/app/strings/content_strings.grd: IDS_AX_ROLE_NAVIGATIONAL_LINK,object_path=,source_path=,flags={},num_aliases=1,component=)
.pak.translations@4eb3(size_without_padding=12,padding=0,full_name=../../content/app/strings/content_strings.grd: IDS_AX_ROLE_REGION,object_path=,source_path=,flags={},num_aliases=1,component=)
.pak.translations@4eb4(size_without_padding=23,padding=0,full_name=../../content/app/strings/content_strings.grd: IDS_AX_ROLE_SEARCH_BOX,object_path=,source_path=,flags={},num_aliases=1,component=)
.pak.translations@4eb5(size_without_padding=12,padding=0,full_name=../../content/app/strings/content_strings.grd: IDS_AX_ROLE_STATUS,object_path=,source_path=,flags={},num_aliases=1,component=)
.pak.translations@4eb6(size_without_padding=12,padding=0,full_name=../../content/app/strings/content_strings.grd: IDS_AX_ROLE_SWITCH,object_path=,source_path=,flags={},num_aliases=1,component=)
.pak.translations@4eb8(size_without_padding=11,padding=0,full_name=../../content/app/strings/content_strings.grd: IDS_AX_ROLE_ALERT,object_path=,source_path=,flags={},num_aliases=1,component=)
.pak.translations@4eb9(size_without_padding=18,padding=0,full_name=../../content/app/strings/content_strings.grd: IDS_AX_ROLE_ALERT_DIALOG,object_path=,source_path=,flags={},num_aliases=1,component=)
.pak.translations@4eba(size_without_padding=17,padding=0,full_name=../../content/app/strings/content_strings.grd: IDS_AX_ROLE_APPLICATION,object_path=,source_path=,flags={},num_aliases=1,component=)
.pak.translations@4ebb(size_without_padding=16,padding=0,full_name=../../content/app/strings/content_strings.grd: IDS_AX_ROLE_BLOCKQUOTE,object_path=,source_path=,flags={},num_aliases=1,component=)
.pak.translations@4ebc(size_without_padding=12,padding=0,full_name=../../content/app/strings/content_strings.grd: IDS_AX_ROLE_BUTTON,object_path=,source_path=,flags={},num_aliases=1,component=)
.pak.translations@4ebd(size_without_padding=22,padding=0,full_name=../../content/app/strings/content_strings.grd: IDS_AX_ROLE_BUTTON_DROP_DOWN,object_path=,source_path=,flags={},num_aliases=1,component=)
.pak.translations@4ebe(size_without_padding=10,padding=0,full_name=../../content/app/strings/content_strings.grd: IDS_AX_ROLE_CELL,object_path=,source_path=,flags={},num_aliases=1,component=)
.pak.translations@4ebf(size_without_padding=18,padding=0,full_name=../../content/app/strings/content_strings.grd: IDS_AX_ROLE_COLOR_WELL,object_path=,source_path=,flags={},num_aliases=1,component=)
.pak.translations@4ec0(size_without_padding=19,padding=0,full_name=../../content/app/strings/content_strings.grd: IDS_AX_ROLE_COLUMN_HEADER,object_path=,source_path=,flags={},num_aliases=1,component=)
.pak.translations@4ec2(size_without_padding=17,padding=0,full_name=../../content/app/strings/content_strings.grd: IDS_AX_ROLE_DATE,object_path=,source_path=,flags={},num_aliases=1,component=)
.pak.translations@4ec3(size_without_padding=26,padding=0,full_name=../../content/app/strings/content_strings.grd: IDS_AX_ROLE_DATE_TIME,object_path=,source_path=,flags={},num_aliases=1,component=)
.pak.translations@4ec4(size_without_padding=12,padding=0,full_name=../../content/app/strings/content_strings.grd: IDS_AX_ROLE_DIALOG,object_path=,source_path=,flags={},num_aliases=1,component=)
.pak.translations@4ec5(size_without_padding=15,padding=0,full_name=../../content/app/strings/content_strings.grd: IDS_AX_ROLE_DIRECTORY,object_path=,source_path=,flags={},num_aliases=1,component=)
.pak.translations@4ec6(size_without_padding=14,padding=0,full_name=../../content/app/strings/content_strings.grd: IDS_AX_ROLE_DOCUMENT,object_path=,source_path=,flags={},num_aliases=1,component=)
.pak.translations@4ec7(size_without_padding=12,padding=0,full_name=../../content/app/strings/content_strings.grd: IDS_AX_ROLE_EMBEDDED_OBJECT,object_path=,source_path=,flags={},num_aliases=1,component=)
.pak.translations@4ec8(size_without_padding=13,padding=0,full_name=../../content/app/strings/content_strings.grd: IDS_AX_ROLE_GRAPHIC,object_path=,source_path=,flags={},num_aliases=1,component=)
.pak.translations@4ec9(size_without_padding=16,padding=0,full_name=../../content/app/strings/content_strings.grd: IDS_AX_ROLE_HEADING_WITH_LEVEL,object_path=,source_path=,flags={},num_aliases=1,component=)
.pak.translations@4eca(size_without_padding=17,padding=0,full_name=../../content/app/strings/content_strings.grd: IDS_AX_ROLE_INPUT_TIME,object_path=,source_path=,flags={},num_aliases=1,component=)
.pak.translations@4ecb(size_without_padding=14,padding=0,full_name=../../content/app/strings/content_strings.grd: IDS_AX_ROLE_LIST_BOX,object_path=,source_path=,flags={},num_aliases=1,component=)
.pak.translations@4ecc(size_without_padding=9,padding=0,full_name=../../content/app/strings/content_strings.grd: IDS_AX_ROLE_LOG,object_path=,source_path=,flags={},num_aliases=1,component=)
.pak.translations@4ecd(size_without_padding=13,padding=0,full_name=../../content/app/strings/content_strings.grd: IDS_AX_ROLE_MARQUEE,object_path=,source_path=,flags={},num_aliases=1,component=)
.pak.translations@4ece(size_without_padding=10,padding=0,full_name=../../content/app/strings/content_strings.grd: IDS_AX_ROLE_MENU,object_path=,source_path=,flags={},num_aliases=1,component=)
.pak.translations@4ecf(size_without_padding=14,padding=0,full_name=../../content/app/strings/content_strings.grd: IDS_AX_ROLE_MENU_BAR,object_path=,source_path=,flags={},num_aliases=1,component=)
.pak.translations@4ed0(size_without_padding=17,padding=0,full_name=../../content/app/strings/content_strings.grd: IDS_AX_ROLE_MENU_BUTTON,object_path=,source_path=,flags={},num_aliases=1,component=)
.pak.translations@4ed1(size_without_padding=15,padding=0,full_name=../../content/app/strings/content_strings.grd: IDS_AX_ROLE_MENU_ITEM,object_path=,source_path=,flags={},num_aliases=1,component=)
.pak.translations@4ed2(size_without_padding=11,padding=0,full_name=../../content/app/strings/content_strings.grd: IDS_AX_ROLE_METER,object_path=,source_path=,flags={},num_aliases=1,component=)
.pak.translations@4ed3(size_without_padding=10,padding=0,full_name=../../content/app/strings/content_strings.grd: IDS_AX_ROLE_NOTE,object_path=,source_path=,flags={},num_aliases=1,component=)
.pak.translations@4ed4(size_without_padding=19,padding=0,full_name=../../content/app/strings/content_strings.grd: IDS_AX_ROLE_POP_UP_BUTTON,object_path=,source_path=,flags={},num_aliases=1,component=)
.pak.translations@4ed5(size_without_padding=24,padding=0,full_name=../../content/app/strings/content_strings.grd: IDS_AX_ROLE_PROGRESS_INDICATOR,object_path=,source_path=,flags={},num_aliases=1,component=)
.pak.translations@4ed6(size_without_padding=18,padding=0,full_name=../../content/app/strings/content_strings.grd: IDS_AX_ROLE_RADIO,object_path=,source_path=,flags={},num_aliases=1,component=)
.pak.translations@4ed7(size_without_padding=17,padding=0,full_name=../../content/app/strings/content_strings.grd: IDS_AX_ROLE_RADIO_GROUP,object_path=,source_path=,flags={},num_aliases=1,component=)
.pak.translations@4ed8(size_without_padding=16,padding=0,full_name=../../content/app/strings/content_strings.grd: IDS_AX_ROLE_ROW_HEADER,object_path=,source_path=,flags={},num_aliases=1,component=)
.pak.translations@4ed9(size_without_padding=16,padding=0,full_name=../../content/app/strings/content_strings.grd: IDS_AX_ROLE_SCROLL_BAR,object_path=,source_path=,flags={},num_aliases=1,component=)
.pak.translations@4eda(size_without_padding=12,padding=0,full_name=../../content/app/strings/content_strings.grd: IDS_AX_ROLE_SEARCH,object_path=,source_path=,flags={},num_aliases=1,component=)
.pak.translations@4edb(size_without_padding=12,padding=0,full_name=../../content/app/strings/content_strings.grd: IDS_AX_ROLE_SLIDER,object_path=,source_path=,flags={},num_aliases=1,component=)
.pak.translations@4edc(size_without_padding=17,padding=0,full_name=../../content/app/strings/content_strings.grd: IDS_AX_ROLE_SPIN_BUTTON,object_path=,source_path=,flags={},num_aliases=1,component=)
.pak.translations@4edd(size_without_padding=14,padding=0,full_name=../../content/app/strings/content_strings.grd: IDS_AX_ROLE_SPLITTER,object_path=,source_path=,flags={},num_aliases=1,component=)
.pak.translations@4ede(size_without_padding=9,padding=0,full_name=../../content/app/strings/content_strings.grd: IDS_AX_ROLE_TAB,object_path=,source_path=,flags={},num_aliases=1,component=)
.pak.translations@4edf(size_without_padding=11,padding=0,full_name=../../content/app/strings/content_strings.grd: IDS_AX_ROLE_TABLE,object_path=,source_path=,flags={},num_aliases=1,component=)
.pak.translations@4ee0(size_without_padding=14,padding=0,full_name=../../content/app/strings/content_strings.grd: IDS_AX_ROLE_TAB_LIST,object_path=,source_path=,flags={},num_aliases=1,component=)
.pak.translations@4ee1(size_without_padding=15,padding=0,full_name=../../content/app/strings/content_strings.grd: IDS_AX_ROLE_TAB_PANEL,object_path=,source_path=,flags={},num_aliases=1,component=)
.pak.translations@4ee2(size_without_padding=10,padding=0,full_name=../../content/app/strings/content_strings.grd: IDS_AX_ROLE_TIME,object_path=,source_path=,flags={},num_aliases=1,component=)
.pak.translations@4ee3(size_without_padding=11,padding=0,full_name=../../content/app/strings/content_strings.grd: IDS_AX_ROLE_TIMER,object_path=,source_path=,flags={},num_aliases=1,component=)
.pak.translations@4ee4(size_without_padding=13,padding=0,full_name=../../content/app/strings/content_strings.grd: IDS_AX_ROLE_TOOLBAR,object_path=,source_path=,flags={},num_aliases=1,component=)
.pak.translations@4ee5(size_without_padding=13,padding=0,full_name=../../content/app/strings/content_strings.grd: IDS_AX_ROLE_TOOLTIP,object_path=,source_path=,flags={},num_aliases=1,component=)
.pak.translations@4ee6(size_without_padding=10,padding=0,full_name=../../content/app/strings/content_strings.grd: IDS_AX_ROLE_TREE,object_path=,source_path=,flags={},num_aliases=1,component=)
.pak.translations@4ee7(size_without_padding=15,padding=0,full_name=../../content/app/strings/content_strings.grd: IDS_AX_ROLE_TREE_GRID,object_path=,source_path=,flags={},num_aliases=1,component=)
.pak.translations@4ee8(size_without_padding=15,padding=0,full_name=../../content/app/strings/content_strings.grd: IDS_AX_ROLE_TREE_ITEM,object_path=,source_path=,flags={},num_aliases=1,component=)
.pak.translations@4ee9(size_without_padding=11,padding=0,full_name=../../content/app/strings/content_strings.grd: IDS_AX_AM_PM_FIELD_TEXT,object_path=,source_path=,flags={},num_aliases=1,component=)
.pak.translations@4eea(size_without_padding=9,padding=0,full_name=../../content/app/strings/content_strings.grd: IDS_AX_DAY_OF_MONTH_FIELD_TEXT,object_path=,source_path=,flags={},num_aliases=1,component=)
.pak.translations@4eeb(size_without_padding=11,padding=0,full_name=../../content/app/strings/content_strings.grd: IDS_AX_HOUR_FIELD_TEXT,object_path=,source_path=,flags={},num_aliases=1,component=)
.pak.translations@4eec(size_without_padding=19,padding=0,full_name=../../content/app/strings/content_strings.grd: IDS_AX_MEDIA_DEFAULT,object_path=,source_path=,flags={},num_aliases=1,component=)
.pak.translations@4eed(size_without_padding=15,padding=0,full_name=../../content/app/strings/content_strings.grd: IDS_AX_MEDIA_AUDIO_ELEMENT,object_path=,source_path=,flags={},num_aliases=1,component=)
.pak.translations@4eee(size_without_padding=15,padding=0,full_name=../../content/app/strings/content_strings.grd: IDS_AX_MEDIA_VIDEO_ELEMENT,object_path=,source_path=,flags={},num_aliases=1,component=)
.pak.translations@4eef(size_without_padding=10,padding=0,full_name=../../content/app/strings/content_strings.grd: IDS_AX_MEDIA_MUTE_BUTTON,object_path=,source_path=,flags={},num_aliases=1,component=)
.pak.translations@4ef0(size_without_padding=12,padding=0,full_name=../../content/app/strings/content_strings.grd: IDS_AX_MEDIA_UNMUTE_BUTTON,object_path=,source_path=,flags={},num_aliases=1,component=)
.pak.translations@4ef1(size_without_padding=10,padding=0,full_name=../../content/app/strings/content_strings.grd: IDS_AX_MEDIA_PLAY_BUTTON,object_path=,source_path=,flags={},num_aliases=1,component=)
.pak.translations@4ef2(size_without_padding=11,padding=0,full_name=../../content/app/strings/content_strings.grd: IDS_AX_MEDIA_PAUSE_BUTTON,object_path=,source_path=,flags={},num_aliases=1,component=)
.pak.translations@4ef3(size_without_padding=18,padding=0,full_name=../../content/app/strings/content_strings.grd: IDS_AX_MEDIA_CURRENT_TIME_DISPLAY,object_path=,source_path=,flags={},num_aliases=1,component=)
.pak.translations@4ef4(size_without_padding=20,padding=0,full_name=../../content/app/strings/content_strings.grd: IDS_AX_MEDIA_TIME_REMAINING_DISPLAY,object_path=,source_path=,flags={},num_aliases=1,component=)
.pak.translations@4ef5(size_without_padding=23,padding=0,full_name=../../content/app/strings/content_strings.grd: IDS_AX_MEDIA_ENTER_FULL_SCREEN_BUTTON,object_path=,source_path=,flags={},num_aliases=1,component=)
.pak.translations@4ef6(size_without_padding=26,padding=0,full_name=../../content/app/strings/content_strings.grd: IDS_AX_MEDIA_EXIT_FULL_SCREEN_BUTTON,object_path=,source_path=,flags={},num_aliases=1,component=)
.pak.translations@4ef7(size_without_padding=26,padding=0,full_name=../../content/app/strings/content_strings.grd: IDS_AX_MEDIA_SHOW_CLOSED_CAPTIONS_BUTTON,object_path=,source_path=,flags={},num_aliases=1,component=)
.pak.translations@4ef8(size_without_padding=26,padding=0,full_name=../../content/app/strings/content_strings.grd: IDS_AX_MEDIA_HIDE_CLOSED_CAPTIONS_BUTTON,object_path=,source_path=,flags={},num_aliases=1,component=)
.pak.translations@4ef9(size_without_padding=31,padding=0,full_name=../../content/app/strings/content_strings.grd: IDS_AX_MEDIA_CAST_OFF_BUTTON,object_path=,source_path=,flags={},num_aliases=1,component=)
.pak.translations@4efa(size_without_padding=33,padding=0,full_name=../../content/app/strings/content_strings.grd: IDS_AX_MEDIA_CAST_ON_BUTTON,object_path=,source_path=,flags={},num_aliases=1,component=)
.pak.translations@4efb(size_without_padding=20,padding=0,full_name=../../content/app/strings/content_strings.grd: IDS_AX_MEDIA_DOWNLOAD_BUTTON,object_path=,source_path=,flags={},num_aliases=1,component=)
.pak.translations@4efc(size_without_padding=30,padding=0,full_name=../../content/app/strings/content_strings.grd: IDS_AX_MEDIA_OVERFLOW_BUTTON,object_path=,source_path=,flags={},num_aliases=1,component=)
.pak.translations@4eff(size_without_padding=22,padding=0,full_name=../../content/app/strings/content_strings.grd: IDS_AX_MEDIA_MUTE_BUTTON_HELP,object_path=,source_path=,flags={},num_aliases=1,component=)
.pak.translations@4f00(size_without_padding=24,padding=0,full_name=../../content/app/strings/content_strings.grd: IDS_AX_MEDIA_UNMUTE_BUTTON_HELP,object_path=,source_path=,flags={},num_aliases=1,component=)
.pak.translations@4f01(size_without_padding=20,padding=0,full_name=../../content/app/strings/content_strings.grd: IDS_AX_MEDIA_PLAY_BUTTON_HELP,object_path=,source_path=,flags={},num_aliases=1,component=)
.pak.translations@4f02(size_without_padding=20,padding=0,full_name=../../content/app/strings/content_strings.grd: IDS_AX_MEDIA_PAUSE_BUTTON_HELP,object_path=,source_path=,flags={},num_aliases=1,component=)
.pak.translations@4f03(size_without_padding=25,padding=0,full_name=../../content/app/strings/content_strings.grd: IDS_AX_MEDIA_AUDIO_SLIDER_HELP,object_path=,source_path=,flags={},num_aliases=1,component=)
.pak.translations@4f04(size_without_padding=25,padding=0,full_name=../../content/app/strings/content_strings.grd: IDS_AX_MEDIA_VIDEO_SLIDER_HELP,object_path=,source_path=,flags={},num_aliases=1,component=)
.pak.translations@4f05(size_without_padding=29,padding=0,full_name=../../content/app/strings/content_strings.grd: IDS_AX_MEDIA_CURRENT_TIME_DISPLAY_HELP,object_path=,source_path=,flags={},num_aliases=1,component=)
.pak.translations@4f06(size_without_padding=42,padding=0,full_name=../../content/app/strings/content_strings.grd: IDS_AX_MEDIA_TIME_REMAINING_DISPLAY_HELP,object_path=,source_path=,flags={},num_aliases=1,component=)
.pak.translations@4f07(size_without_padding=36,padding=0,full_name=../../content/app/strings/content_strings.grd: IDS_AX_MEDIA_ENTER_FULL_SCREEN_BUTTON_HELP,object_path=,source_path=,flags={},num_aliases=1,component=)
.pak.translations@4f09(size_without_padding=38,padding=0,full_name=../../content/app/strings/content_strings.grd: IDS_AX_MEDIA_SHOW_CLOSED_CAPTIONS_BUTTON_HELP,object_path=,source_path=,flags={},num_aliases=1,component=)
.pak.translations@4f0a(size_without_padding=37,padding=0,full_name=../../content/app/strings/content_strings.grd: IDS_AX_MEDIA_HIDE_CLOSED_CAPTIONS_BUTTON_HELP,object_path=,source_path=,flags={},num_aliases=1,component=)
.pak.translations@4f0d(size_without_padding=18,padding=0,full_name=../../content/app/strings/content_strings.grd: IDS_AX_MEDIA_OVERFLOW_BUTTON_HELP,object_path=,source_path=,flags={},num_aliases=1,component=)
.pak.translations@4f0e(size_without_padding=18,padding=0,full_name=../../content/app/strings/content_strings.grd: IDS_AX_MILLISECOND_FIELD_TEXT,object_path=,source_path=,flags={},num_aliases=1,component=)
.pak.translations@4f0f(size_without_padding=13,padding=0,full_name=../../content/app/strings/content_strings.grd: IDS_AX_MINUTE_FIELD_TEXT,object_path=,source_path=,flags={},num_aliases=1,component=)
.pak.translations@4f10(size_without_padding=11,padding=0,full_name=../../content/app/strings/content_strings.grd: IDS_AX_MONTH_FIELD_TEXT,object_path=,source_path=,flags={},num_aliases=1,component=)
.pak.translations@4f11(size_without_padding=13,padding=0,full_name=../../content/app/strings/content_strings.grd: IDS_AX_SECOND_FIELD_TEXT,object_path=,source_path=,flags={},num_aliases=1,component=)
.pak.translations@4f13(size_without_padding=10,padding=0,full_name=../../content/app/strings/content_strings.grd: IDS_AX_YEAR_FIELD_TEXT,object_path=,source_path=,flags={},num_aliases=1,component=)
.pak.translations@4f14(size_without_padding=17,padding=0,full_name=../../content/app/strings/content_strings.grd: IDS_FORM_INPUT_WEEK_TEMPLATE,object_path=,source_path=,flags={},num_aliases=1,component=)
.pak.translations@4f15(size_without_padding=38,padding=0,full_name=../../content/app/strings/content_strings.grd: IDS_FORM_VALIDATION_VALUE_MISSING_MULTIPLE_FILE,object_path=,source_path=,flags={},num_aliases=1,component=)
.pak.translations@4f16(size_without_padding=20,padding=0,full_name=../../content/app/strings/content_strings.grd: IDS_FORM_VALIDATION_TYPE_MISMATCH,object_path=,source_path=,flags={},num_aliases=1,component=)
.pak.translations@4f17(size_without_padding=45,padding=0,full_name=../../content/app/strings/content_strings.grd: IDS_FORM_VALIDATION_TYPE_MISMATCH_EMAIL_EMPTY,object_path=,source_path=,flags={},num_aliases=1,component=)
.pak.translations@4f18(size_without_padding=61,padding=0,full_name=../../content/app/strings/content_strings.grd: IDS_FORM_VALIDATION_TYPE_MISMATCH_EMAIL_EMPTY_DOMAIN,object_path=,source_path=,flags={},num_aliases=1,component=)
.pak.translations@4f19(size_without_padding=63,padding=0,full_name=../../content/app/strings/content_strings.grd: IDS_FORM_VALIDATION_TYPE_MISMATCH_EMAIL_EMPTY_LOCAL,object_path=,source_path=,flags={},num_aliases=1,component=)
.pak.translations@4f1a(size_without_padding=63,padding=0,full_name=../../content/app/strings/content_strings.grd: IDS_FORM_VALIDATION_TYPE_MISMATCH_EMAIL_INVALID_DOMAIN,object_path=,source_path=,flags={},num_aliases=1,component=)
.pak.translations@4f1b(size_without_padding=47,padding=0,full_name=../../content/app/strings/content_strings.grd: IDS_FORM_VALIDATION_TYPE_MISMATCH_EMAIL_INVALID_DOTS,object_path=,source_path=,flags={},num_aliases=1,component=)
.pak.translations@4f1c(size_without_padding=65,padding=0,full_name=../../content/app/strings/content_strings.grd: IDS_FORM_VALIDATION_TYPE_MISMATCH_EMAIL_INVALID_LOCAL,object_path=,source_path=,flags={},num_aliases=1,component=)
.pak.translations@4f1d(size_without_padding=75,padding=0,full_name=../../content/app/strings/content_strings.grd: IDS_FORM_VALIDATION_TYPE_MISMATCH_EMAIL_NO_AT_SIGN,object_path=,source_path=,flags={},num_aliases=1,component=)
.pak.translations@4f1e(size_without_padding=61,padding=0,full_name=../../content/app/strings/content_strings.grd: IDS_FORM_VALIDATION_TYPE_MISMATCH_MULTIPLE_EMAIL,object_path=,source_path=,flags={},num_aliases=1,component=)
.pak.translations@4f1f(size_without_padding=48,padding=0,full_name=../../content/app/strings/content_strings.grd: IDS_FORM_VALIDATION_RANGE_UNDERFLOW,object_path=,source_path=,flags={},num_aliases=1,component=)
.pak.translations@4f20(size_without_padding=32,padding=0,full_name=../../content/app/strings/content_strings.grd: IDS_FORM_VALIDATION_RANGE_UNDERFLOW_DATETIME,object_path=,source_path=,flags={},num_aliases=1,component=)
.pak.translations@4f21(size_without_padding=45,padding=0,full_name=../../content/app/strings/content_strings.grd: IDS_FORM_VALIDATION_RANGE_OVERFLOW,object_path=,source_path=,flags={},num_aliases=1,component=)
.pak.translations@4f22(size_without_padding=34,padding=0,full_name=../../content/app/strings/content_strings.grd: IDS_FORM_VALIDATION_RANGE_OVERFLOW_DATETIME,object_path=,source_path=,flags={},num_aliases=1,component=)
.pak.translations@4f23(size_without_padding=81,padding=0,full_name=../../content/app/strings/content_strings.grd: IDS_FORM_VALIDATION_BAD_INPUT_DATETIME,object_path=,source_path=,flags={},num_aliases=1,component=)
.pak.translations@4f24(size_without_padding=28,padding=0,full_name=../../content/app/strings/content_strings.grd: IDS_FORM_VALIDATION_BAD_INPUT_NUMBER,object_path=,source_path=,flags={},num_aliases=1,component=)
.pak.translations@4f25(size_without_padding=33,padding=0,full_name=../../content/app/strings/content_strings.grd: IDS_FORM_VALIDATION_VALUE_MISSING,object_path=,source_path=,flags={},num_aliases=1,component=)
.pak.translations@4f26(size_without_padding=51,padding=0,full_name=../../content/app/strings/content_strings.grd: IDS_FORM_VALIDATION_VALUE_MISSING_CHECKBOX,object_path=,source_path=,flags={},num_aliases=1,component=)
.pak.translations@4f27(size_without_padding=27,padding=0,full_name=../../content/app/strings/content_strings.grd: IDS_FORM_VALIDATION_VALUE_MISSING_FILE,object_path=,source_path=,flags={},num_aliases=1,component=)
.pak.translations@4f28(size_without_padding=41,padding=0,full_name=../../content/app/strings/content_strings.grd: IDS_FORM_VALIDATION_VALUE_MISSING_RADIO,object_path=,source_path=,flags={},num_aliases=1,component=)
.pak.translations@4f29(size_without_padding=40,padding=0,full_name=../../content/app/strings/content_strings.grd: IDS_FORM_VALIDATION_VALUE_MISSING_SELECT,object_path=,source_path=,flags={},num_aliases=1,component=)
.pak.translations@4f2a(size_without_padding=36,padding=0,full_name=../../content/app/strings/content_strings.grd: IDS_FORM_VALIDATION_TYPE_MISMATCH_EMAIL,object_path=,source_path=,flags={},num_aliases=1,component=)
.pak.translations@4f2b(size_without_padding=25,padding=0,full_name=../../content/app/strings/content_strings.grd: IDS_FORM_VALIDATION_TYPE_MISMATCH_URL,object_path=,source_path=,flags={},num_aliases=1,component=)
.pak.translations@4f2c(size_without_padding=40,padding=0,full_name=../../content/app/strings/content_strings.grd: IDS_FORM_VALIDATION_PATTERN_MISMATCH,object_path=,source_path=,flags={},num_aliases=1,component=)
.pak.translations@4f2d(size_without_padding=77,padding=0,full_name=../../content/app/strings/content_strings.grd: IDS_FORM_VALIDATION_STEP_MISMATCH,object_path=,source_path=,flags={},num_aliases=1,component=)
.pak.translations@4f2e(size_without_padding=64,padding=0,full_name=../../content/app/strings/content_strings.grd: IDS_FORM_VALIDATION_STEP_MISMATCH_CLOSE_TO_LIMIT,object_path=,source_path=,flags={},num_aliases=1,component=)
.pak.translations@4f2f(size_without_padding=96,padding=0,full_name=../../content/app/strings/content_strings.grd: IDS_FORM_VALIDATION_TOO_LONG,object_path=,source_path=,flags={},num_aliases=1,component=)
.pak.translations@4f30(size_without_padding=95,padding=0,full_name=../../content/app/strings/content_strings.grd: IDS_FORM_VALIDATION_TOO_SHORT,object_path=,source_path=,flags={},num_aliases=1,component=)
.pak.translations@4f31(size_without_padding=97,padding=0,full_name=../../content/app/strings/content_strings.grd: IDS_FORM_VALIDATION_TOO_SHORT_PLURAL,object_path=,source_path=,flags={},num_aliases=1,component=)
.pak.translations@4f32(size_without_padding=14,padding=0,full_name=../../content/app/strings/content_strings.grd: IDS_MEDIA_OVERFLOW_MENU_CLOSED_CAPTIONS,object_path=,source_path=,flags={},num_aliases=1,component=)
.pak.translations@4f33(size_without_padding=13,padding=0,full_name=../../content/app/strings/content_strings.grd: IDS_MEDIA_OVERFLOW_MENU_CLOSED_CAPTIONS_SUBMENU_TITLE,object_path=,source_path=,flags={},num_aliases=1,component=)
.pak.translations@4f34(size_without_padding=10,padding=0,full_name=../../content/app/strings/content_strings.grd: IDS_MEDIA_OVERFLOW_MENU_CAST,object_path=,source_path=,flags={},num_aliases=1,component=)
.pak.translations@4f35(size_without_padding=16,padding=0,full_name=../../content/app/strings/content_strings.grd: IDS_MEDIA_OVERFLOW_MENU_ENTER_FULLSCREEN,object_path=,source_path=,flags={},num_aliases=1,component=)
.pak.translations@4f36(size_without_padding=21,padding=0,full_name=../../content/app/strings/content_strings.grd: IDS_MEDIA_OVERFLOW_MENU_EXIT_FULLSCREEN,object_path=,source_path=,flags={},num_aliases=1,component=)
.pak.translations@4f37(size_without_padding=18,padding=0,full_name=../../content/app/strings/content_strings.grd: IDS_MEDIA_OVERFLOW_MENU_STOP_CAST,object_path=,source_path=,flags={},num_aliases=1,component=)
.pak.translations@4f38(size_without_padding=10,padding=0,full_name=../../content/app/strings/content_strings.grd: IDS_MEDIA_OVERFLOW_MENU_MUTE,object_path=,source_path=,flags={},num_aliases=1,component=)
.pak.translations@4f39(size_without_padding=12,padding=0,full_name=../../content/app/strings/content_strings.grd: IDS_MEDIA_OVERFLOW_MENU_UNMUTE,object_path=,source_path=,flags={},num_aliases=1,component=)
.pak.translations@4f3a(size_without_padding=10,padding=0,full_name=../../content/app/strings/content_strings.grd: IDS_MEDIA_OVERFLOW_MENU_PLAY,object_path=,source_path=,flags={},num_aliases=1,component=)
.pak.translations@4f3b(size_without_padding=11,padding=0,full_name=../../content/app/strings/content_strings.grd: IDS_MEDIA_OVERFLOW_MENU_PAUSE,object_path=,source_path=,flags={},num_aliases=1,component=)
.pak.translations@4f3c(size_without_padding=14,padding=0,full_name=../../content/app/strings/content_strings.grd: IDS_MEDIA_OVERFLOW_MENU_DOWNLOAD,object_path=,source_path=,flags={},num_aliases=1,component=)
.pak.translations@4f3d(size_without_padding=26,padding=0,full_name=../../content/app/strings/content_strings.grd: IDS_MEDIA_REMOTING_DISABLE_TEXT,object_path=,source_path=,flags={},num_aliases=1,component=)
.pak.translations@4f3e(size_without_padding=23,padding=0,full_name=../../content/app/strings/content_strings.grd: IDS_MEDIA_REMOTING_CAST_TEXT,object_path=,source_path=,flags={},num_aliases=1,component=)
.pak.translations@4f3f(size_without_padding=28,padding=0,full_name=../../content/app/strings/content_strings.grd: IDS_MEDIA_REMOTING_CAST_TO_UNKNOWN_DEVICE_TEXT,object_path=,source_path=,flags={},num_aliases=1,component=)
.pak.translations@4f40(size_without_padding=14,padding=0,full_name=../../content/app/strings/content_strings.grd: IDS_MEDIA_TRACKS_NO_LABEL,object_path=third_party/icu/icuuc/ucnv_ext.o,source_path=third_party/icu/ucnv_ext.c,flags={gen},num_aliases=1,component=Internal>Android)
.pak.translations@4f41(size_without_padding=9,padding=0,full_name=../../content/app/strings/content_strings.grd: IDS_MEDIA_TRACKS_OFF,object_path=base/base/page_allocator.o,source_path=base/page_allocator.cc,flags={},num_aliases=2,component=Blink>Internal)
.pak.translations@4f41(size_without_padding=9,padding=0,full_name=../../content/app/strings/content_strings.grd: IDS_MEDIA_TRACKS_OFF,object_path=third_party/icu/icuuc/ucnv_ext.o,source_path=third_party/icu/ucnv_ext.c,flags={gen},num_aliases=2,component=Internal>Android)
.pak.translations@4f42(size_without_padding=27,padding=0,full_name=../../content/app/strings/content_strings.grd: IDS_PLUGIN_INITIALIZATION_ERROR,object_path=,source_path=,flags={},num_aliases=1,component=)
.pak.translations@5bd6(size_without_padding=27,padding=0,full_name=../../android_webview/ui/aw_strings.grd: IDS_AW_WEBPAGE_NOT_AVAILABLE,object_path=,source_path=,flags={},num_aliases=1,component=)
.pak.translations@5bd7(size_without_padding=69,padding=0,full_name=../../android_webview/ui/aw_strings.grd: IDS_AW_WEBPAGE_CAN_NOT_BE_LOADED,object_path=,source_path=,flags={},num_aliases=1,component=)
.pak.translations@5bd8(size_without_padding=121,padding=0,full_name=../../android_webview/ui/aw_strings.grd: IDS_AW_WEBPAGE_TEMPORARILY_DOWN,object_path=,source_path=,flags={},num_aliases=1,component=)
.pak.translations@5bd9(size_without_padding=161,padding=0,full_name=../../android_webview/ui/aw_strings.grd: IDS_AW_WEBPAGE_TEMPORARILY_DOWN_SUGGESTIONS,object_path=,source_path=,flags={},num_aliases=1,component=)
.pak.translations@5bda(size_without_padding=80,padding=0,full_name=../../android_webview/ui/aw_strings.grd: IDS_AW_WEBPAGE_PARENTAL_PERMISSION_NEEDED,object_path=,source_path=,flags={},num_aliases=1,component=)
.pak.translations@6917(size_without_padding=23,padding=0,full_name=../../ui/strings/app_locale_settings.grd: IDS_WEB_FONT_FAMILY,object_path=,source_path=,flags={},num_aliases=1,component=)
.pak.translations@6918(size_without_padding=9,padding=0,full_name=../../ui/strings/app_locale_settings.grd: IDS_WEB_FONT_SIZE,object_path=,source_path=,flags={},num_aliases=1,component=)
